ffrwr
1
33224
rfrrr
solved bits:            0000000000000000000000000001000000000100000001000000000000001000
failed bits:            0000000000000000000000000000000000000000000000000000010000000000
wrong bits:             0000000000000000000000000000000000000000000000000000000000000000
solved negotiants bits: 0000000000000000000000001111111111111111111111110000000011111111
failed resources bits:  0000000000000000000000000000010000000100000001000000010000000100
wrong resources bits:   0000000000000000000000000000000000000000000000000000000000000000
0
x
